\contentsline {section}{\numberline {1}告発の趣旨}{15}{section.1}%
\contentsline {section}{\numberline {2}資料（2022年6月13日以前の作成）}{15}{section.2}%
\contentsline {subsection}{\numberline {2.1}金沢弁護士会の対応を確認・記録した上での本件刑事告発・非常上告事件の告発状の一からの書き直し}{15}{subsection.2.1}%
\contentsline {subsection}{\numberline {2.2}未提出を決めた本件刑事告発・非常上告事件の作成済み資料、「\#日本弁護士連合会に対する事前連絡」というハッシュタグで公開済みブログ記事の一覧}{16}{subsection.2.2}%
\contentsline {subsection}{\numberline {2.3}「権力者が悪用し、自身に批判的な言論を告訴する可能性がある」という時事通信社の記事の深澤諭史弁護士のコメント、刑裁サイ太の本質情報という評価}{23}{subsection.2.3}%
\contentsline {subsection}{\numberline {2.4}大西洋一弁護士のツイートから2つ遡った「話題になっている遊覧船の会見の件」、「弁護士対応」から考える、被告発人弁護士らの行状}{24}{subsection.2.4}%
\contentsline {subsection}{\numberline {2.5}「某裁判員裁判「障害者は、社会に受け入れ先がないから、刑務所になるべく長く、閉じ込めてヨシッ！」」などという集中した深澤諭史弁護士のツイート群}{31}{subsection.2.5}%
\contentsline {subsection}{\numberline {2.6}本日2022年4月29日に初めて知った、昨年、令和3年7月16日付で就任していた金沢地方検察庁の小沢正明検事正}{36}{subsection.2.6}%
\contentsline {subsection}{\numberline {2.7}平成4年8月の初めての接見で被告発人木梨松嗣弁護士がアクリル板に張り付けた傷害・準強姦被告事件の北國新聞の記事}{42}{subsection.2.7}%
\contentsline {subsection}{\numberline {2.8}蛸島事件と宇出津あばれ祭り／モトケンこと矢部善朗弁護士（京都弁護士会）のプロフィール変更と、国立国会図書館150万点閲覧可能サービス開始}{46}{subsection.2.8}%
\contentsline {subsection}{\numberline {2.9}蛸島事件と宇出津あばれ祭り／「貴方がやったとされる行為が許されるべきものであるとする資料に私のツイートが使われる」という小倉秀夫弁護士からの返信ツイート}{55}{subsection.2.9}%
\contentsline {subsection}{\numberline {2.10}蛸島事件と宇出津あばれ祭り／「脅迫には屈するわけにいきませんので、毅然とした対応を採る」と私が脅迫していると決めつける小倉秀夫弁護士のツイートの記録}{60}{subsection.2.10}%
\contentsline {subsection}{\numberline {2.11}「奉納＼さらば弁護士鉄道・泥棒神社の物語(@hirono\_hideki)」というTwitterアカウントのプロフィールの名前の変更を検討及び京都迷宮案内と倉木麻衣のテーマ曲}{65}{subsection.2.11}%
\contentsline {subsection}{\numberline {2.12}蛸島事件と宇出津あばれ祭り／深澤諭史弁護士の「ネットｄｅ真実」から考える、本件刑事告発・非常上告事件の事実関係と地域社会への危機的悪影響の不安（1）}{70}{subsection.2.12}%
\contentsline {subsection}{\numberline {2.13}蛸島事件と宇出津あばれ祭り／深澤諭史弁護士の「ネットｄｅ真実」から考える、本件刑事告発・非常上告事件の事実関係と地域社会への危機的悪影響の不安（2）}{74}{subsection.2.13}%
\contentsline {subsection}{\numberline {2.14}蛸島事件と宇出津あばれ祭り／深澤諭史弁護士の「ネットｄｅ真実」から考える、本件刑事告発・非常上告事件の事実関係と地域社会への危機的悪影響の不安（3）}{77}{subsection.2.14}%
\contentsline {subsection}{\numberline {2.15}蛸島事件と宇出津あばれ祭り／深澤諭史弁護士の「ネットｄｅ真実」から考える、本件刑事告発・非常上告事件の事実関係と地域社会への危機的悪影響の不安（4）}{80}{subsection.2.15}%
\contentsline {subsection}{\numberline {2.16}蛸島事件と宇出津あばれ祭り／深澤諭史弁護士の「ネットｄｅ真実」から考える、本件刑事告発・非常上告事件の事実関係と地域社会への危機的悪影響の不安（5）}{82}{subsection.2.16}%
\contentsline {subsection}{\numberline {2.17}蛸島事件と宇出津あばれ祭り／深澤諭史弁護士の「ネットｄｅ真実」から考える、本件刑事告発・非常上告事件の事実関係と地域社会への危機的悪影響の不安（6）}{88}{subsection.2.17}%
\contentsline {subsection}{\numberline {2.18}蛸島事件と宇出津あばれ祭り／深澤諭史弁護士の「ネットｄｅ真実」から考える、本件刑事告発・非常上告事件の事実関係と地域社会への危機的悪影響の不安（7）}{98}{subsection.2.18}%
\contentsline {subsection}{\numberline {2.19}蛸島事件と宇出津あばれ祭り／深澤諭史弁護士の「ネットｄｅ真実」から考える、本件刑事告発・非常上告事件の事実関係と地域社会への危機的悪影響の不安（8）}{104}{subsection.2.19}%
\contentsline {subsection}{\numberline {2.20}蛸島事件と宇出津あばれ祭り／深澤諭史弁護士の「ネットｄｅ真実」から考える、本件刑事告発・非常上告事件の事実関係と地域社会への危機的悪影響の不安（9）}{110}{subsection.2.20}%
\contentsline {subsection}{\numberline {2.21}蛸島事件と宇出津あばれ祭り／深澤諭史弁護士の「ネットｄｅ真実」から考える、本件刑事告発・非常上告事件の事実関係と地域社会への危機的悪影響の不安（10）}{114}{subsection.2.21}%
\contentsline {subsection}{\numberline {2.22}蛸島事件と宇出津あばれ祭り／深澤諭史弁護士の「ネットｄｅ真実」から考える、本件刑事告発・非常上告事件の事実関係と地域社会への危機的悪影響の不安（11）}{125}{subsection.2.22}%
\contentsline {subsection}{\numberline {2.23}蛸島事件と宇出津あばれ祭り／深澤諭史弁護士の「ネットｄｅ真実」から考える、本件刑事告発・非常上告事件の事実関係と地域社会への危機的悪影響の不安（12）}{130}{subsection.2.23}%
\contentsline {subsection}{\numberline {2.24}蛸島事件と宇出津あばれ祭り／深澤諭史弁護士の「ネットｄｅ真実」から考える、本件刑事告発・非常上告事件の事実関係と地域社会への危機的悪影響の不安（13）}{138}{subsection.2.24}%
\contentsline {subsection}{\numberline {2.25}蛸島事件と宇出津あばれ祭り／深澤諭史弁護士の「ネットｄｅ真実」から考える、本件刑事告発・非常上告事件の事実関係と地域社会への危機的悪影響の不安（14）}{144}{subsection.2.25}%
\contentsline {subsection}{\numberline {2.26}蛸島事件と宇出津あばれ祭り／深澤諭史弁護士の「ネットｄｅ真実」から考える、本件刑事告発・非常上告事件の事実関係と地域社会への危機的悪影響の不安（15）}{148}{subsection.2.26}%
\contentsline {subsection}{\numberline {2.27}蛸島事件と宇出津あばれ祭り／深澤諭史弁護士の「ネットｄｅ真実」から考える、本件刑事告発・非常上告事件の事実関係と地域社会への危機的悪影響の不安（16）}{152}{subsection.2.27}%
\contentsline {subsection}{\numberline {2.28}蛸島事件と宇出津あばれ祭り／深澤諭史弁護士の「ネットｄｅ真実」から考える、本件刑事告発・非常上告事件の事実関係と地域社会への危機的悪影響の不安（17）}{165}{subsection.2.28}%
\contentsline {subsection}{\numberline {2.29}蛸島事件と宇出津あばれ祭り／深澤諭史弁護士の「ネットｄｅ真実」から考える、本件刑事告発・非常上告事件の事実関係と地域社会への危機的悪影響の不安（18）}{167}{subsection.2.29}%
\contentsline {subsection}{\numberline {2.30}蛸島事件と宇出津あばれ祭り／深澤諭史弁護士の「ネットｄｅ真実」から考える、本件刑事告発・非常上告事件の事実関係と地域社会への危機的悪影響の不安（19）}{171}{subsection.2.30}%
\contentsline {subsection}{\numberline {2.31}蛸島事件と宇出津あばれ祭り／深澤諭史弁護士の「ネットｄｅ真実」から考える、本件刑事告発・非常上告事件の事実関係と地域社会への危機的悪影響の不安（20）}{175}{subsection.2.31}%
\contentsline {subsection}{\numberline {2.32}蛸島事件と宇出津あばれ祭り／深澤諭史弁護士の「ネットｄｅ真実」から考える、本件刑事告発・非常上告事件の事実関係と地域社会への危機的悪影響の不安（21）}{186}{subsection.2.32}%
\contentsline {subsection}{\numberline {2.33}蛸島事件と宇出津あばれ祭り／深澤諭史弁護士の「ネットｄｅ真実」から考える、本件刑事告発・非常上告事件の事実関係と地域社会への危機的悪影響の不安（22）}{204}{subsection.2.33}%
\contentsline {subsection}{\numberline {2.34}蛸島事件と宇出津あばれ祭り／深澤諭史弁護士の「ネットｄｅ真実」から考える、本件刑事告発・非常上告事件の事実関係と地域社会への危機的悪影響の不安（23）}{211}{subsection.2.34}%
\contentsline {subsection}{\numberline {2.35}蛸島事件と宇出津あばれ祭り／深澤諭史弁護士の「ネットｄｅ真実」から考える、本件刑事告発・非常上告事件の事実関係と地域社会への危機的悪影響の不安（24）}{220}{subsection.2.35}%
\contentsline {subsection}{\numberline {2.36}蛸島事件と宇出津あばれ祭り／大西洋一弁護士@o2441の「受任に慎重になるべき場合（弁護士向け）」という記事から考える金沢弁護士会の社会的責任（01）}{231}{subsection.2.36}%
\contentsline {subsection}{\numberline {2.37}蛸島事件と宇出津あばれ祭り／大西洋一弁護士@o2441の「受任に慎重になるべき場合（弁護士向け）」という記事から考える金沢弁護士会の社会的責任（02）}{239}{subsection.2.37}%
\contentsline {subsection}{\numberline {2.38}蛸島事件と宇出津あばれ祭り／大西洋一弁護士@o2441の「受任に慎重になるべき場合（弁護士向け）」という記事から考える金沢弁護士会の社会的責任（03）}{242}{subsection.2.38}%
\contentsline {subsection}{\numberline {2.39}蛸島事件と宇出津あばれ祭り／大西洋一弁護士@o2441の「受任に慎重になるべき場合（弁護士向け）」という記事から考える金沢弁護士会の社会的責任（04）}{247}{subsection.2.39}%
\contentsline {subsection}{\numberline {2.40}蛸島事件と宇出津あばれ祭り／大西洋一弁護士@o2441の「受任に慎重になるべき場合（弁護士向け）」という記事から考える金沢弁護士会の社会的責任（05）}{254}{subsection.2.40}%
\contentsline {subsection}{\numberline {2.41}蛸島事件と宇出津あばれ祭り／大西洋一弁護士@o2441の「受任に慎重になるべき場合（弁護士向け）」という記事から考える金沢弁護士会の社会的責任（06）}{261}{subsection.2.41}%
\contentsline {subsection}{\numberline {2.42}蛸島事件と宇出津あばれ祭り／大西洋一弁護士@o2441の「受任に慎重になるべき場合（弁護士向け）」という記事から考える金沢弁護士会の社会的責任（07）}{265}{subsection.2.42}%
\contentsline {subsection}{\numberline {2.43}蛸島事件と宇出津あばれ祭り／大西洋一弁護士@o2441の「受任に慎重になるべき場合（弁護士向け）」という記事から考える金沢弁護士会の社会的責任（08）}{268}{subsection.2.43}%
\contentsline {subsection}{\numberline {2.44}蛸島事件と宇出津あばれ祭り／山口県阿武町の給付金誤振込に関連し田舎の弁護士と行政の対応等について語った現預金に執着するピピピーッという匿名弁護士のツイートの記録}{274}{subsection.2.44}%
\contentsline {subsection}{\numberline {2.45}蛸島事件と宇出津あばれ祭り／「『自分にとって得にならない法は破ろう』というメッセージを常に発信し続けている国。」という深澤諭史弁護士のリツイートに感じた弁護士脳の衝撃波}{283}{subsection.2.45}%
\contentsline {subsection}{\numberline {2.46}蛸島事件と宇出津あばれ祭り／富山地裁の性的暴行事件の無罪判決と、群馬県警高崎北警察署の警部補のネットカフェ個室での強制わいせつの現行犯逮捕のニュース、弁護士の反応}{289}{subsection.2.46}%
\contentsline {subsection}{\numberline {2.47}蛸島事件と宇出津あばれ祭り／「改正不同意性交罪で告訴」で掛け合いをする高橋雄一郎弁護士と匿名弁護士うの字、本件刑事告発・非常上告事件の事実（01）}{303}{subsection.2.47}%
\contentsline {subsection}{\numberline {2.48}蛸島事件と宇出津あばれ祭り／「改正不同意性交罪で告訴」で掛け合いをする高橋雄一郎弁護士と匿名弁護士うの字、本件刑事告発・非常上告事件の事実（02）}{304}{subsection.2.48}%
\contentsline {subsection}{\numberline {2.49}2022年05月16日のディスクトップパソコンへのUbuntu2204の新規インストール}{307}{subsection.2.49}%
\contentsline {subsection}{\numberline {2.50}「弁護士・亜蘭陸法は漫画家になりたい」と、落合洋司弁護士（東京弁護士会）のツイートで知った「人間交差点」という30年以上前の漫画}{313}{subsection.2.50}%
\contentsline {subsection}{\numberline {2.51}小倉秀夫弁護士を人間のクズという神原元弁護士に対して、「釈迦に説法，弁護士に憲法論で恐縮ですが」とたしなめる刑裁サイ太@uwaaaaのツイート}{319}{subsection.2.51}%
\contentsline {subsection}{\numberline {2.52}山口県阿武町の誤振込事件に関連し、「ざっと見た限り、罪とならずになりそうな気がするんですが、山口地検や広島高検」等一連の刑裁サイ太@uwaaaaのツイート}{320}{subsection.2.52}%
\contentsline {subsection}{\numberline {2.53}弁護士に疑問の声が見当たらない「暴力団員の国選」「その日から毎日３回の接見要請」「罵倒の嵐」というツイートに垣間見る、弁護士の国選弁護の実態（01）}{323}{subsection.2.53}%
\contentsline {subsection}{\numberline {2.54}弁護士に疑問の声が見当たらない「暴力団員の国選」「その日から毎日３回の接見要請」「罵倒の嵐」というツイートに垣間見る、弁護士の国選弁護の実態（02）}{325}{subsection.2.54}%
\contentsline {subsection}{\numberline {2.55}弁護士に疑問の声が見当たらない「暴力団員の国選」「その日から毎日３回の接見要請」「罵倒の嵐」というツイートに垣間見る、弁護士の国選弁護の実態（03）}{329}{subsection.2.55}%
\contentsline {subsection}{\numberline {2.56}「わざわざ、お金を払って、自分の大切な権利を失い、無用な義務を負担することにもなりかねないのに」という深澤諭史弁護士@fukazawasのツイート}{333}{subsection.2.56}%
\contentsline {subsection}{\numberline {2.57}「私が現職のときなら、警察が逮捕前に相談に来た事案だと思うけど、今回はどうなのかな？」というモトケンこと矢部善朗弁護士（京都弁護士会）@motoken\_twの引用ツイート}{336}{subsection.2.57}%
\contentsline {subsection}{\numberline {2.58}大西洋一弁護士@o2441がツイートで紹介した「``4630万円誤振込事件''、「電子計算機使用詐欺」のままでは無罪」という郷原信郎弁護士のYahooニュース}{348}{subsection.2.58}%
\contentsline {subsection}{\numberline {2.59}蛸島事件と宇出津あばれ祭り／美濃加茂市長事件、斜里町の遊覧船沈没事故、阿武町の誤給付事件に共通した郷原信郎弁護士の過激な反応、地方自治への脅威と在り方（01）}{352}{subsection.2.59}%
\contentsline {subsection}{\numberline {2.60}「他人から評価を得ようとする者は評価する他人の評価基準を知らなければならない。」というモトケンこと矢部善朗弁護士（京都弁護士会）のツイートと、プロット（1）}{358}{subsection.2.60}%
\contentsline {subsection}{\numberline {2.61}蛸島事件と宇出津あばれ祭り／暴力団と警察に対し、悪い印象付をしているような工藤会と松戸市に関連したモトケンこと矢部善朗弁護士（京都弁護士会）のツイート（01）}{364}{subsection.2.61}%
\contentsline {subsection}{\numberline {2.62}蛸島事件と宇出津あばれ祭り／暴力団と警察に対し、悪い印象付をしているような工藤会と松戸市に関連したモトケンこと矢部善朗弁護士（京都弁護士会）のツイート（02）}{366}{subsection.2.62}%
\contentsline {subsection}{\numberline {2.63}蛸島事件と宇出津あばれ祭り／暴力団と警察に対し、悪い印象付をしているような工藤会と松戸市に関連したモトケンこと矢部善朗弁護士（京都弁護士会）のツイート（03）}{368}{subsection.2.63}%
\contentsline {subsection}{\numberline {2.64}蛸島事件と宇出津あばれ祭り／本件刑事告発・非常上告事件の事実及び経過と、モトケンこと矢部善朗弁護士（京都弁護士会）@motoken\_twの名誉毀損での刑事処罰の必要性（01）}{370}{subsection.2.64}%
\contentsline {subsection}{\numberline {2.65}蛸島事件と宇出津あばれ祭り／本件刑事告発・非常上告事件の事実及び経過と、モトケンこと矢部善朗弁護士（京都弁護士会）@motoken\_twの名誉毀損での刑事処罰の必要性（02）}{373}{subsection.2.65}%
\contentsline {subsection}{\numberline {2.66}蛸島事件と宇出津あばれ祭り／本件刑事告発・非常上告事件の事実及び経過と、モトケンこと矢部善朗弁護士（京都弁護士会）@motoken\_twの名誉毀損での刑事処罰の必要性（03）}{375}{subsection.2.66}%
\contentsline {subsection}{\numberline {2.67}蛸島事件と宇出津あばれ祭り／本件刑事告発・非常上告事件の事実及び経過と、モトケンこと矢部善朗弁護士（京都弁護士会）@motoken\_twの名誉毀損での刑事処罰の必要性（04）}{377}{subsection.2.67}%
\contentsline {subsection}{\numberline {2.68}蛸島事件と宇出津あばれ祭り／本件刑事告発・非常上告事件の事実及び経過と、モトケンこと矢部善朗弁護士（京都弁護士会）@motoken\_twの名誉毀損での刑事処罰の必要性（05）}{382}{subsection.2.68}%
\contentsline {subsection}{\numberline {2.69}蛸島事件と宇出津あばれ祭り／本件刑事告発・非常上告事件の事実及び経過と、モトケンこと矢部善朗弁護士（京都弁護士会）@motoken\_twの名誉毀損での刑事処罰の必要性（06）}{392}{subsection.2.69}%
\contentsline {subsection}{\numberline {2.70}蛸島事件と宇出津あばれ祭り／本件刑事告発・非常上告事件の事実及び経過と、モトケンこと矢部善朗弁護士（京都弁護士会）@motoken\_twの名誉毀損での刑事処罰の必要性（07）}{394}{subsection.2.70}%
\contentsline {subsection}{\numberline {2.71}「詐欺師」と名指しされたツイートで石川県警察珠洲警察署に名誉毀損で刑事告訴することにしたモトケンこと矢部善朗弁護士（京都弁護士会）（01）}{403}{subsection.2.71}%
\contentsline {subsection}{\numberline {2.72}「詐欺師」と名指しされたツイートで石川県警察珠洲警察署に名誉毀損で刑事告訴することにしたモトケンこと矢部善朗弁護士（京都弁護士会）（02）}{406}{subsection.2.72}%
\contentsline {subsection}{\numberline {2.73}「詐欺師」と名指しされたツイートで石川県警察珠洲警察署に名誉毀損で刑事告訴することにしたモトケンこと矢部善朗弁護士（京都弁護士会）（03）}{410}{subsection.2.73}%
\contentsline {subsection}{\numberline {2.74}蛸島事件と宇出津あばれ祭り／本件刑事告発・非常上告事件の事実及び経過と、モトケンこと矢部善朗弁護士（京都弁護士会）@motoken\_twの名誉毀損での刑事処罰の必要性（08）}{419}{subsection.2.74}%
\contentsline {subsection}{\numberline {2.75}蛸島事件と宇出津あばれ祭り／本件刑事告発・非常上告事件の事実及び経過と、モトケンこと矢部善朗弁護士（京都弁護士会）@motoken\_twの名誉毀損での刑事処罰の必要性（09）}{426}{subsection.2.75}%
\contentsline {subsection}{\numberline {2.76}蛸島事件と宇出津あばれ祭り／本件刑事告発・非常上告事件の事実及び経過と、モトケンこと矢部善朗弁護士（京都弁護士会）@motoken\_twの名誉毀損での刑事処罰の必要性（10）}{432}{subsection.2.76}%
\contentsline {subsection}{\numberline {2.77}蛸島事件と宇出津あばれ祭り／本件刑事告発・非常上告事件の事実及び経過と、モトケンこと矢部善朗弁護士（京都弁護士会）@motoken\_twの名誉毀損での刑事処罰の必要性（11）}{435}{subsection.2.77}%
\contentsline {subsection}{\numberline {2.78}蛸島事件と宇出津あばれ祭り／本件刑事告発・非常上告事件の事実及び経過と、モトケンこと矢部善朗弁護士（京都弁護士会）@motoken\_twの名誉毀損での刑事処罰の必要性（12）}{438}{subsection.2.78}%
\contentsline {subsection}{\numberline {2.79}蛸島事件と宇出津あばれ祭り／本件刑事告発・非常上告事件の事実及び経過と、モトケンこと矢部善朗弁護士（京都弁護士会）@motoken\_twの名誉毀損での刑事処罰の必要性（13）}{441}{subsection.2.79}%
\contentsline {subsection}{\numberline {2.80}蛸島事件と宇出津あばれ祭り／本件刑事告発・非常上告事件の事実及び経過と、モトケンこと矢部善朗弁護士（京都弁護士会）@motoken\_twの名誉毀損での刑事処罰の必要性（14）}{444}{subsection.2.80}%
\contentsline {subsection}{\numberline {2.81}蛸島事件と宇出津あばれ祭り／本件刑事告発・非常上告事件の事実及び経過と、モトケンこと矢部善朗弁護士（京都弁護士会）@motoken\_twの名誉毀損での刑事処罰の必要性（15）}{446}{subsection.2.81}%
\contentsline {subsection}{\numberline {2.82}蛸島事件と宇出津あばれ祭り／本件刑事告発・非常上告事件の事実及び経過と、モトケンこと矢部善朗弁護士（京都弁護士会）@motoken\_twの名誉毀損での刑事処罰の必要性（16）}{451}{subsection.2.82}%
\contentsline {subsection}{\numberline {2.83}蛸島事件と宇出津あばれ祭り／本件刑事告発・非常上告事件の事実及び経過と、モトケンこと矢部善朗弁護士（京都弁護士会）@motoken\_twの名誉毀損での刑事処罰の必要性（17）}{458}{subsection.2.83}%
\contentsline {subsection}{\numberline {2.84}蛸島事件と宇出津あばれ祭り／本件刑事告発・非常上告事件の事実及び経過と、モトケンこと矢部善朗弁護士（京都弁護士会）@motoken\_twの名誉毀損での刑事処罰の必要性（18）}{460}{subsection.2.84}%
\contentsline {subsection}{\numberline {2.85}蛸島事件と宇出津あばれ祭り／本件刑事告発・非常上告事件の事実及び経過と、モトケンこと矢部善朗弁護士（京都弁護士会）@motoken\_twの名誉毀損での刑事処罰の必要性（19）}{464}{subsection.2.85}%
\contentsline {subsection}{\numberline {2.86}蛸島事件と宇出津あばれ祭り／本件刑事告発・非常上告事件の事実及び経過と、モトケンこと矢部善朗弁護士（京都弁護士会）@motoken\_twの名誉毀損での刑事処罰の必要性（20）}{467}{subsection.2.86}%
\contentsline {subsection}{\numberline {2.87}蛸島事件と宇出津あばれ祭り／本件刑事告発・非常上告事件の事実及び経過と、モトケンこと矢部善朗弁護士（京都弁護士会）@motoken\_twの名誉毀損での刑事処罰の必要性（21）}{471}{subsection.2.87}%
\contentsline {subsection}{\numberline {2.88}蛸島事件と宇出津あばれ祭り／本件刑事告発・非常上告事件の事実及び経過と、モトケンこと矢部善朗弁護士（京都弁護士会）@motoken\_twの名誉毀損での刑事処罰の必要性（22）}{476}{subsection.2.88}%
\contentsline {subsection}{\numberline {2.89}蛸島事件と宇出津あばれ祭り／本件刑事告発・非常上告事件の事実及び経過と、モトケンこと矢部善朗弁護士（京都弁護士会）@motoken\_twの名誉毀損での刑事処罰の必要性（23）}{481}{subsection.2.89}%
\contentsline {subsection}{\numberline {2.90}蛸島事件と宇出津あばれ祭り／本件刑事告発・非常上告事件の事実及び経過と、モトケンこと矢部善朗弁護士（京都弁護士会）@motoken\_twの名誉毀損での刑事処罰の必要性（24）}{489}{subsection.2.90}%
\contentsline {subsection}{\numberline {2.91}蛸島事件と宇出津あばれ祭り／本件刑事告発・非常上告事件の事実及び経過と、モトケンこと矢部善朗弁護士（京都弁護士会）@motoken\_twの名誉毀損での刑事処罰の必要性（25）}{494}{subsection.2.91}%
\contentsline {subsection}{\numberline {2.92}蛸島事件と宇出津あばれ祭り／本件刑事告発・非常上告事件の事実及び経過と、モトケンこと矢部善朗弁護士（京都弁護士会）@motoken\_twの名誉毀損での刑事処罰の必要性（26）}{499}{subsection.2.92}%
\contentsline {subsection}{\numberline {2.93}蛸島事件と宇出津あばれ祭り／本件刑事告発・非常上告事件の事実及び経過と、モトケンこと矢部善朗弁護士（京都弁護士会）@motoken\_twの名誉毀損での刑事処罰の必要性（27）}{508}{subsection.2.93}%
\contentsline {subsection}{\numberline {2.94}蛸島事件と宇出津あばれ祭り／本件刑事告発・非常上告事件の事実及び経過と、モトケンこと矢部善朗弁護士（京都弁護士会）@motoken\_twの名誉毀損での刑事処罰の必要性（28）}{518}{subsection.2.94}%
\contentsline {subsection}{\numberline {2.95}蛸島事件と宇出津あばれ祭り／本件刑事告発・非常上告事件の事実及び経過と、モトケンこと矢部善朗弁護士（京都弁護士会）@motoken\_twの名誉毀損での刑事処罰の必要性（29）}{525}{subsection.2.95}%
\contentsline {subsection}{\numberline {2.96}蛸島事件と宇出津あばれ祭り／本件刑事告発・非常上告事件の事実及び経過と、モトケンこと矢部善朗弁護士（京都弁護士会）@motoken\_twの名誉毀損での刑事処罰の必要性（30）}{528}{subsection.2.96}%
\contentsline {subsection}{\numberline {2.97}蛸島事件と宇出津あばれ祭り／本件刑事告発・非常上告事件の事実及び経過と、モトケンこと矢部善朗弁護士（京都弁護士会）@motoken\_twの名誉毀損での刑事処罰の必要性（31）}{542}{subsection.2.97}%
\contentsline {subsection}{\numberline {2.98}蛸島事件と宇出津あばれ祭り／本件刑事告発・非常上告事件の事実及び経過と、モトケンこと矢部善朗弁護士（京都弁護士会）@motoken\_twの名誉毀損での刑事処罰の必要性（32）}{545}{subsection.2.98}%
\contentsline {subsection}{\numberline {2.99}蛸島事件と宇出津あばれ祭り／本件刑事告発・非常上告事件の事実及び経過と、モトケンこと矢部善朗弁護士（京都弁護士会）@motoken\_twの名誉毀損での刑事処罰の必要性（33）}{549}{subsection.2.99}%
\contentsline {subsection}{\numberline {2.100}蛸島事件と宇出津あばれ祭り／本件刑事告発・非常上告事件の事実及び経過と、モトケンこと矢部善朗弁護士（京都弁護士会）@motoken\_twの名誉毀損での刑事処罰の必要性（34）}{552}{subsection.2.100}%
\contentsline {subsection}{\numberline {2.101}蛸島事件と宇出津あばれ祭り／本件刑事告発・非常上告事件の事実及び経過と、モトケンこと矢部善朗弁護士（京都弁護士会）@motoken\_twの名誉毀損での刑事処罰の必要性（35）}{553}{subsection.2.101}%
\contentsline {subsection}{\numberline {2.102}蛸島事件と宇出津あばれ祭り／本件刑事告発・非常上告事件の事実及び経過と、モトケンこと矢部善朗弁護士（京都弁護士会）@motoken\_twの名誉毀損での刑事処罰の必要性（36）}{558}{subsection.2.102}%
\contentsline {subsection}{\numberline {2.103}蛸島事件と宇出津あばれ祭り／本件刑事告発・非常上告事件の事実及び経過と、モトケンこと矢部善朗弁護士（京都弁護士会）@motoken\_twの名誉毀損での刑事処罰の必要性（37）}{563}{subsection.2.103}%
\contentsline {subsection}{\numberline {2.104}蛸島事件と宇出津あばれ祭り／本件刑事告発・非常上告事件の事実及び経過と、モトケンこと矢部善朗弁護士（京都弁護士会）@motoken\_twの名誉毀損での刑事処罰の必要性（38）}{574}{subsection.2.104}%
\contentsline {subsection}{\numberline {2.105}蛸島事件と宇出津あばれ祭り／本件刑事告発・非常上告事件の事実及び経過と、モトケンこと矢部善朗弁護士（京都弁護士会）@motoken\_twの名誉毀損での刑事処罰の必要性（39）}{577}{subsection.2.105}%
\contentsline {subsection}{\numberline {2.106}蛸島事件と宇出津あばれ祭り／本件刑事告発・非常上告事件の事実及び経過と、モトケンこと矢部善朗弁護士（京都弁護士会）@motoken\_twの名誉毀損での刑事処罰の必要性（40）}{581}{subsection.2.106}%
\contentsline {subsection}{\numberline {2.107}蛸島事件と宇出津あばれ祭り／本件刑事告発・非常上告事件の事実及び経過と、モトケンこと矢部善朗弁護士（京都弁護士会）@motoken\_twの名誉毀損での刑事処罰の必要性（41）}{584}{subsection.2.107}%
\contentsline {subsection}{\numberline {2.108}蛸島事件と宇出津あばれ祭り／本件刑事告発・非常上告事件の事実及び経過と、モトケンこと矢部善朗弁護士（京都弁護士会）@motoken\_twの名誉毀損での刑事処罰の必要性（42）}{596}{subsection.2.108}%
\contentsline {subsection}{\numberline {2.109}蛸島事件と宇出津あばれ祭り／本件刑事告発・非常上告事件の事実及び経過と、モトケンこと矢部善朗弁護士（京都弁護士会）@motoken\_twの名誉毀損での刑事処罰の必要性（43）}{601}{subsection.2.109}%
\contentsline {subsection}{\numberline {2.110}蛸島事件と宇出津あばれ祭り／本件刑事告発・非常上告事件の事実及び経過と、モトケンこと矢部善朗弁護士（京都弁護士会）@motoken\_twの名誉毀損での刑事処罰の必要性（44）}{604}{subsection.2.110}%
\contentsline {subsection}{\numberline {2.111}蛸島事件と宇出津あばれ祭り／本件刑事告発・非常上告事件の事実及び経過と、モトケンこと矢部善朗弁護士（京都弁護士会）@motoken\_twの名誉毀損での刑事処罰の必要性（45）}{608}{subsection.2.111}%
\contentsline {subsection}{\numberline {2.112}蛸島事件と宇出津あばれ祭り／本件刑事告発・非常上告事件の事実及び経過と、モトケンこと矢部善朗弁護士（京都弁護士会）@motoken\_twの名誉毀損での刑事処罰の必要性（46）}{609}{subsection.2.112}%
\contentsline {subsection}{\numberline {2.113}蛸島事件と宇出津あばれ祭り／本件刑事告発・非常上告事件の事実及び経過と、モトケンこと矢部善朗弁護士（京都弁護士会）@motoken\_twの名誉毀損での刑事処罰の必要性（47）}{613}{subsection.2.113}%
\contentsline {subsection}{\numberline {2.114}蛸島事件と宇出津あばれ祭り／本件刑事告発・非常上告事件の事実及び経過と、モトケンこと矢部善朗弁護士（京都弁護士会）@motoken\_twの名誉毀損での刑事処罰の必要性（48）}{616}{subsection.2.114}%
\contentsline {subsection}{\numberline {2.115}蛸島事件と宇出津あばれ祭り／本件刑事告発・非常上告事件の事実及び経過と、モトケンこと矢部善朗弁護士（京都弁護士会）@motoken\_twの名誉毀損での刑事処罰の必要性（49）}{618}{subsection.2.115}%
\contentsline {subsection}{\numberline {2.116}蛸島事件と宇出津あばれ祭り／本件刑事告発・非常上告事件の事実及び経過と、モトケンこと矢部善朗弁護士（京都弁護士会）@motoken\_twの名誉毀損での刑事処罰の必要性（50）}{630}{subsection.2.116}%
\contentsline {subsection}{\numberline {2.117}蛸島事件と宇出津あばれ祭り／本件刑事告発・非常上告事件の事実及び経過と、モトケンこと矢部善朗弁護士（京都弁護士会）@motoken\_twの名誉毀損での刑事処罰の必要性（51）}{644}{subsection.2.117}%
\contentsline {subsection}{\numberline {2.118}蛸島事件と宇出津あばれ祭り／本件刑事告発・非常上告事件の事実及び経過と、モトケンこと矢部善朗弁護士（京都弁護士会）@motoken\_twの名誉毀損での刑事処罰の必要性（52）}{649}{subsection.2.118}%
\contentsline {subsection}{\numberline {2.119}蛸島事件と宇出津あばれ祭り／本件刑事告発・非常上告事件の事実及び経過と、モトケンこと矢部善朗弁護士（京都弁護士会）@motoken\_twの名誉毀損での刑事処罰の必要性（53）}{660}{subsection.2.119}%
\contentsline {subsection}{\numberline {2.120}蛸島事件と宇出津あばれ祭り／本件刑事告発・非常上告事件の事実及び経過と、モトケンこと矢部善朗弁護士（京都弁護士会）@motoken\_twの名誉毀損での刑事処罰の必要性（54）}{665}{subsection.2.120}%
\contentsline {subsection}{\numberline {2.121}蛸島事件と宇出津あばれ祭り／本件刑事告発・非常上告事件の事実及び経過と、モトケンこと矢部善朗弁護士（京都弁護士会）@motoken\_twの名誉毀損での刑事処罰の必要性（55）}{669}{subsection.2.121}%
\contentsline {subsection}{\numberline {2.122}蛸島事件と宇出津あばれ祭り／本件刑事告発・非常上告事件の事実及び経過と、モトケンこと矢部善朗弁護士（京都弁護士会）@motoken\_twの名誉毀損での刑事処罰の必要性（56）}{677}{subsection.2.122}%
\contentsline {subsection}{\numberline {2.123}蛸島事件と宇出津あばれ祭り／本件刑事告発・非常上告事件の事実及び経過と、モトケンこと矢部善朗弁護士（京都弁護士会）@motoken\_twの名誉毀損での刑事処罰の必要性（57）}{681}{subsection.2.123}%
\contentsline {subsection}{\numberline {2.124}蛸島事件と宇出津あばれ祭り／本件刑事告発・非常上告事件の事実及び経過と、モトケンこと矢部善朗弁護士（京都弁護士会）@motoken\_twの名誉毀損での刑事処罰の必要性（58）}{684}{subsection.2.124}%
\contentsline {subsection}{\numberline {2.125}蛸島事件と宇出津あばれ祭り／本件刑事告発・非常上告事件の事実及び経過と、モトケンこと矢部善朗弁護士（京都弁護士会）@motoken\_twの名誉毀損での刑事処罰の必要性（59）}{690}{subsection.2.125}%
\contentsline {subsection}{\numberline {2.126}蛸島事件と宇出津あばれ祭り／本件刑事告発・非常上告事件の事実及び経過と、モトケンこと矢部善朗弁護士（京都弁護士会）@motoken\_twの名誉毀損での刑事処罰の必要性（60）}{693}{subsection.2.126}%
\contentsline {subsection}{\numberline {2.127}蛸島事件と宇出津あばれ祭り／本件刑事告発・非常上告事件の事実及び経過と、モトケンこと矢部善朗弁護士（京都弁護士会）@motoken\_twの名誉毀損での刑事処罰の必要性（61）}{701}{subsection.2.127}%
\contentsline {subsection}{\numberline {2.128}蛸島事件と宇出津あばれ祭り／本件刑事告発・非常上告事件の事実及び経過と、モトケンこと矢部善朗弁護士（京都弁護士会）@motoken\_twの名誉毀損での刑事処罰の必要性（62）}{704}{subsection.2.128}%
\contentsline {subsection}{\numberline {2.129}蛸島事件と宇出津あばれ祭り／本件刑事告発・非常上告事件の事実及び経過と、モトケンこと矢部善朗弁護士（京都弁護士会）@motoken\_twの名誉毀損での刑事処罰の必要性（63）}{712}{subsection.2.129}%
\contentsline {subsection}{\numberline {2.130}蛸島事件と宇出津あばれ祭り／本件刑事告発・非常上告事件の事実及び経過と、モトケンこと矢部善朗弁護士（京都弁護士会）@motoken\_twの名誉毀損での刑事処罰の必要性（64）}{716}{subsection.2.130}%
\contentsline {subsection}{\numberline {2.131}蛸島事件と宇出津あばれ祭り／本件刑事告発・非常上告事件の事実及び経過と、モトケンこと矢部善朗弁護士（京都弁護士会）@motoken\_twの名誉毀損での刑事処罰の必要性（65）}{720}{subsection.2.131}%
\contentsline {subsection}{\numberline {2.132}蛸島事件と宇出津あばれ祭り／本件刑事告発・非常上告事件の事実及び経過と、モトケンこと矢部善朗弁護士（京都弁護士会）@motoken\_twの名誉毀損での刑事処罰の必要性（66）}{721}{subsection.2.132}%
\contentsline {subsection}{\numberline {2.133}蛸島事件と宇出津あばれ祭り／本件刑事告発・非常上告事件の事実及び経過と、モトケンこと矢部善朗弁護士（京都弁護士会）@motoken\_twの名誉毀損での刑事処罰の必要性（67）}{725}{subsection.2.133}%
\contentsline {subsection}{\numberline {2.134}蛸島事件と宇出津あばれ祭り／本件刑事告発・非常上告事件の事実及び経過と、モトケンこと矢部善朗弁護士（京都弁護士会）@motoken\_twの名誉毀損での刑事処罰の必要性（68）}{727}{subsection.2.134}%
\contentsline {subsection}{\numberline {2.135}蛸島事件と宇出津あばれ祭り／本件刑事告発・非常上告事件の事実及び経過と、モトケンこと矢部善朗弁護士（京都弁護士会）@motoken\_twの名誉毀損での刑事処罰の必要性（69）}{730}{subsection.2.135}%
\contentsline {subsection}{\numberline {2.136}蛸島事件と宇出津あばれ祭り／本件刑事告発・非常上告事件の事実及び経過と、モトケンこと矢部善朗弁護士（京都弁護士会）@motoken\_twの名誉毀損での刑事処罰の必要性（70）}{733}{subsection.2.136}%
\contentsline {subsection}{\numberline {2.137}蛸島事件と宇出津あばれ祭り／本件刑事告発・非常上告事件の事実及び経過と、モトケンこと矢部善朗弁護士（京都弁護士会）@motoken\_twの名誉毀損での刑事処罰の必要性（71）}{741}{subsection.2.137}%
\contentsline {subsection}{\numberline {2.138}蛸島事件と宇出津あばれ祭り／本件刑事告発・非常上告事件の事実及び経過と、モトケンこと矢部善朗弁護士（京都弁護士会）@motoken\_twの名誉毀損での刑事処罰の必要性（72）}{748}{subsection.2.138}%
\contentsline {subsection}{\numberline {2.139}蛸島事件と宇出津あばれ祭り／本件刑事告発・非常上告事件の事実及び経過と、モトケンこと矢部善朗弁護士（京都弁護士会）@motoken\_twの名誉毀損での刑事処罰の必要性（73）}{758}{subsection.2.139}%
\contentsline {subsection}{\numberline {2.140}蛸島事件と宇出津あばれ祭り／本件刑事告発・非常上告事件の事実及び経過と、モトケンこと矢部善朗弁護士（京都弁護士会）@motoken\_twの名誉毀損での刑事処罰の必要性（74）}{772}{subsection.2.140}%
\contentsline {subsection}{\numberline {2.141}蛸島事件と宇出津あばれ祭り／本件刑事告発・非常上告事件の事実及び経過と、モトケンこと矢部善朗弁護士（京都弁護士会）@motoken\_twの名誉毀損での刑事処罰の必要性（75）}{778}{subsection.2.141}%
\contentsline {subsection}{\numberline {2.142}蛸島事件と宇出津あばれ祭り／本件刑事告発・非常上告事件の事実及び経過と、モトケンこと矢部善朗弁護士（京都弁護士会）@motoken\_twの名誉毀損での刑事処罰の必要性（76）}{784}{subsection.2.142}%
\contentsline {subsection}{\numberline {2.143}蛸島事件と宇出津あばれ祭り／本件刑事告発・非常上告事件の事実及び経過と、モトケンこと矢部善朗弁護士（京都弁護士会）@motoken\_twの名誉毀損での刑事処罰の必要性（77）}{790}{subsection.2.143}%
\contentsline {subsection}{\numberline {2.144}蛸島事件と宇出津あばれ祭り／本件刑事告発・非常上告事件の事実及び経過と、モトケンこと矢部善朗弁護士（京都弁護士会）@motoken\_twの名誉毀損での刑事処罰の必要性（78）}{799}{subsection.2.144}%
\contentsline {subsection}{\numberline {2.145}蛸島事件と宇出津あばれ祭り／本件刑事告発・非常上告事件の事実及び経過と、モトケンこと矢部善朗弁護士（京都弁護士会）@motoken\_twの名誉毀損での刑事処罰の必要性（79）}{815}{subsection.2.145}%
\contentsline {subsection}{\numberline {2.146}蛸島事件と宇出津あばれ祭り／本件刑事告発・非常上告事件の事実及び経過と、モトケンこと矢部善朗弁護士（京都弁護士会）@motoken\_twの名誉毀損での刑事処罰の必要性（80）}{820}{subsection.2.146}%
\contentsline {subsection}{\numberline {2.147}蛸島事件と宇出津あばれ祭り／本件刑事告発・非常上告事件の事実及び経過と、モトケンこと矢部善朗弁護士（京都弁護士会）@motoken\_twの名誉毀損での刑事処罰の必要性（81）}{825}{subsection.2.147}%
\contentsline {subsection}{\numberline {2.148}蛸島事件と宇出津あばれ祭り／本件刑事告発・非常上告事件の事実及び経過と、モトケンこと矢部善朗弁護士（京都弁護士会）@motoken\_twの名誉毀損での刑事処罰の必要性（82）}{830}{subsection.2.148}%
\contentsline {subsection}{\numberline {2.149}蛸島事件と宇出津あばれ祭り／本件刑事告発・非常上告事件の事実及び経過と、モトケンこと矢部善朗弁護士（京都弁護士会）@motoken\_twの名誉毀損での刑事処罰の必要性（83）}{836}{subsection.2.149}%
\contentsline {subsection}{\numberline {2.150}蛸島事件と宇出津あばれ祭り／本件刑事告発・非常上告事件の事実及び経過と、モトケンこと矢部善朗弁護士（京都弁護士会）@motoken\_twの名誉毀損での刑事処罰の必要性（84）}{843}{subsection.2.150}%
\contentsline {subsection}{\numberline {2.151}蛸島事件と宇出津あばれ祭り／本件刑事告発・非常上告事件の事実及び経過と、モトケンこと矢部善朗弁護士（京都弁護士会）@motoken\_twの名誉毀損での刑事処罰の必要性（85）}{847}{subsection.2.151}%
\contentsline {subsection}{\numberline {2.152}蛸島事件と宇出津あばれ祭り／本件刑事告発・非常上告事件の事実及び経過と、モトケンこと矢部善朗弁護士（京都弁護士会）@motoken\_twの名誉毀損での刑事処罰の必要性（86）}{858}{subsection.2.152}%
\contentsline {subsection}{\numberline {2.153}蛸島事件と宇出津あばれ祭り／本件刑事告発・非常上告事件の事実及び経過と、モトケンこと矢部善朗弁護士（京都弁護士会）@motoken\_twの名誉毀損での刑事処罰の必要性（87）}{873}{subsection.2.153}%
\contentsline {subsection}{\numberline {2.154}蛸島事件と宇出津あばれ祭り／本件刑事告発・非常上告事件の事実及び経過と、モトケンこと矢部善朗弁護士（京都弁護士会）@motoken\_twの名誉毀損での刑事処罰の必要性（88）}{885}{subsection.2.154}%
\contentsline {subsection}{\numberline {2.155}蛸島事件と宇出津あばれ祭り／本件刑事告発・非常上告事件の事実及び経過と、モトケンこと矢部善朗弁護士（京都弁護士会）@motoken\_twの名誉毀損での刑事処罰の必要性（89）}{893}{subsection.2.155}%
\contentsline {subsection}{\numberline {2.156}蛸島事件と宇出津あばれ祭り／本件刑事告発・非常上告事件の事実及び経過と、モトケンこと矢部善朗弁護士（京都弁護士会）@motoken\_twの名誉毀損での刑事処罰の必要性（90）}{897}{subsection.2.156}%
\contentsline {subsection}{\numberline {2.157}蛸島事件と宇出津あばれ祭り／本件刑事告発・非常上告事件の事実及び経過と、モトケンこと矢部善朗弁護士（京都弁護士会）@motoken\_twの名誉毀損での刑事処罰の必要性（91）}{910}{subsection.2.157}%
\contentsline {subsection}{\numberline {2.158}蛸島事件と宇出津あばれ祭り／本件刑事告発・非常上告事件の事実及び経過と、モトケンこと矢部善朗弁護士（京都弁護士会）@motoken\_twの名誉毀損での刑事処罰の必要性（92）}{921}{subsection.2.158}%
\contentsline {subsection}{\numberline {2.159}蛸島事件と宇出津あばれ祭り／本件刑事告発・非常上告事件の事実及び経過と、モトケンこと矢部善朗弁護士（京都弁護士会）@motoken\_twの名誉毀損での刑事処罰の必要性（93）}{929}{subsection.2.159}%
\contentsline {subsection}{\numberline {2.160}蛸島事件と宇出津あばれ祭り／本件刑事告発・非常上告事件の事実及び経過と、モトケンこと矢部善朗弁護士（京都弁護士会）@motoken\_twの名誉毀損での刑事処罰の必要性（94）}{934}{subsection.2.160}%
\contentsline {subsection}{\numberline {2.161}蛸島事件と宇出津あばれ祭り／本件刑事告発・非常上告事件の事実及び経過と、モトケンこと矢部善朗弁護士（京都弁護士会）@motoken\_twの名誉毀損での刑事処罰の必要性（95）}{945}{subsection.2.161}%
\contentsline {subsection}{\numberline {2.162}蛸島事件と宇出津あばれ祭り／本件刑事告発・非常上告事件の事実及び経過と、モトケンこと矢部善朗弁護士（京都弁護士会）@motoken\_twの名誉毀損での刑事処罰の必要性（96）}{948}{subsection.2.162}%
\contentsline {subsection}{\numberline {2.163}蛸島事件と宇出津あばれ祭り／本件刑事告発・非常上告事件の事実及び経過と、モトケンこと矢部善朗弁護士（京都弁護士会）@motoken\_twの名誉毀損での刑事処罰の必要性（97）}{958}{subsection.2.163}%
\contentsline {subsection}{\numberline {2.164}蛸島事件と宇出津あばれ祭り／本件刑事告発・非常上告事件の事実及び経過と、モトケンこと矢部善朗弁護士（京都弁護士会）@motoken\_twの名誉毀損での刑事処罰の必要性（98）}{968}{subsection.2.164}%
\contentsline {subsection}{\numberline {2.165}蛸島事件と宇出津あばれ祭り／本件刑事告発・非常上告事件の事実及び経過と、モトケンこと矢部善朗弁護士（京都弁護士会）@motoken\_twの名誉毀損での刑事処罰の必要性（99）}{973}{subsection.2.165}%
\contentsline {subsection}{\numberline {2.166}蛸島事件と宇出津あばれ祭り／本件刑事告発・非常上告事件の事実及び経過と、モトケンこと矢部善朗弁護士（京都弁護士会）@motoken\_twの名誉毀損での刑事処罰の必要性（100）}{977}{subsection.2.166}%
\contentsline {subsection}{\numberline {2.167}蛸島事件と宇出津あばれ祭り／本件刑事告発・非常上告事件の事実及び経過と、モトケンこと矢部善朗弁護士（京都弁護士会）@motoken\_twの名誉毀損での刑事処罰の必要性（101）}{982}{subsection.2.167}%
\contentsline {subsection}{\numberline {2.168}蛸島事件と宇出津あばれ祭り／本件刑事告発・非常上告事件の事実及び経過と、モトケンこと矢部善朗弁護士（京都弁護士会）@motoken\_twの名誉毀損での刑事処罰の必要性（102）}{990}{subsection.2.168}%
\contentsline {section}{\numberline {3}TODO 蛸島事件と宇出津あばれ祭り／本件刑事告発・非常上告事件の事実及び経過と、モトケンこと矢部善朗弁護士（京都弁護士会）@motoken\_twの名誉毀損での刑事処罰の必要性（103）}{1006}{section.3}%
\contentsline {section}{\numberline {4}告発に至る経緯}{1007}{section.4}%
\contentsline {subsection}{\numberline {4.1}平成４年の傷害・準強姦被告事件}{1007}{subsection.4.1}%
\contentsline {subsubsection}{\numberline {4.1.1}江村正之検察官}{1007}{subsubsection.4.1.1}%
\contentsline {paragraph}{\numberline {4.1.1.1}DONE COMMENT 「H6.4.1 ～ H8.4.10 水戸地家裁下妻支部判事補」という井上薫元裁判官の経歴で改めて考えた、江村正之検察官の責任}{1007}{paragraph.4.1.1.1}%
\contentsline {paragraph}{\numberline {4.1.1.2}DONE 「無罪確定のプレサンスコーポレーション前社長国に7億7000万円の損害賠償求めた裁判始まる大阪地裁」というネットニュースに考える江村正之検察官と被告発人岡田進弁護士の責任}{1012}{paragraph.4.1.1.2}%
\contentsline {subsection}{\numberline {4.2}本件刑事告発・非常上告事件の書面作成及び情報公開について}{1021}{subsection.4.2}%
\contentsline {subsubsection}{\numberline {4.2.1}テキストエディタEmacs}{1021}{subsubsection.4.2.1}%
\contentsline {paragraph}{\numberline {4.2.1.1}DONE 2022年6月提出予定で作成中の告発状のテキストファイルをMarkdownからorg-modeに変更}{1021}{paragraph.4.2.1.1}%
\contentsline {subsubsection}{\numberline {4.2.2}書面の印刷}{1022}{subsubsection.4.2.2}%
\contentsline {paragraph}{\numberline {4.2.2.1}DONE Ubuntu22.04にPDFファイル作成のためのLaTeXのコンパイル環境をインストール}{1022}{paragraph.4.2.2.1}%
\contentsline {subsubsection}{\numberline {4.2.3}写真資料}{1023}{subsubsection.4.2.3}%
\contentsline {paragraph}{\numberline {4.2.3.1}写真ファイルの並び順の訂正と写真ファイル名の書式変更}{1023}{paragraph.4.2.3.1}%
\contentsline {subsection}{\numberline {4.3}インターネット上の反応}{1024}{subsection.4.3}%
\contentsline {subsubsection}{\numberline {4.3.1}Twitterでブロックされた弁護士やジャーナリストのアカウント}{1024}{subsubsection.4.3.1}%
\contentsline {paragraph}{\numberline {4.3.1.1}2022年06月15日の夜、えきなんロー@ekinan\_lawyerのタイムラインで気が付き知った大井哲也弁護士@tetsuyaoi2tmiによるブロックの調査と記録}{1024}{paragraph.4.3.1.1}%
\contentsline {section}{\numberline {5}告発の事実}{1028}{section.5}%
\contentsline {subsection}{\numberline {5.1}被告発人}{1028}{subsection.5.1}%
\contentsline {subsubsection}{\numberline {5.1.1}被告発人小島裕史裁判長}{1028}{subsubsection.5.1.1}%
\contentsline {paragraph}{\numberline {5.1.1.1}被告発人小島裕史裁判長の刑事責任の重さについて考えさせられた\_hznf\_（@\_hznf\_）というTwitterアカウント（01）：2022年06月14日におけるツイート編（1）}{1028}{paragraph.5.1.1.1}%
\contentsline {paragraph}{\numberline {5.1.1.2}被告発人小島裕史裁判長の刑事責任の重さについて考えさせられた\_hznf\_（@\_hznf\_）というTwitterアカウント（01）：2022年06月14日におけるツイート編（2）}{1034}{paragraph.5.1.1.2}%
\contentsline {paragraph}{\numberline {5.1.1.3}被告発人小島裕史裁判長の刑事責任の重さについて考えさせられた\_hznf\_（@\_hznf\_）というTwitterアカウント（02）：スクリーンショットとBloggerの記事の記録}{1036}{paragraph.5.1.1.3}%
\contentsline {paragraph}{\numberline {5.1.1.4}被告発人小島裕史裁判長の刑事責任の重さについて考えさせられた\_hznf\_（@\_hznf\_）というTwitterアカウント（03）：自作コマンドのPDFファイル作成で、ユーザ名の原因で最初に出たエラー}{1038}{paragraph.5.1.1.4}%
\contentsline {paragraph}{\numberline {5.1.1.5}被告発人小島裕史裁判長の刑事責任の重さについて考えさせられた\_hznf\_（@\_hznf\_）というTwitterアカウント（04）：記録資料一覧（2022年06月14日時点）}{1041}{paragraph.5.1.1.5}%
\contentsline {subsubsection}{\numberline {5.1.2}被告発人若杉幸平弁護士}{1055}{subsubsection.5.1.2}%
\contentsline {paragraph}{\numberline {5.1.2.1}謎の関わりを持つ被告発人若杉幸平弁護士のことが浮かんだ、金沢市増泉の危険運転致死教唆の疑いで逮捕というニュース（01）：法的に問題が大きそうな逮捕のに皆無に近い弁護士脳の反応}{1055}{paragraph.5.1.2.1}%
\contentsline {paragraph}{\numberline {5.1.2.2}謎の関わりを持つ被告発人若杉幸平弁護士のことが浮かんだ、金沢市増泉の危険運転致死教唆の疑いで逮捕というニュース（02）：}{1058}{paragraph.5.1.2.2}%
\contentsline {paragraph}{\numberline {5.1.2.3}謎の関わりを持つ被告発人若杉幸平弁護士のことが浮かんだ、金沢市増泉の危険運転致死教唆の疑いで逮捕というニュース（03）：壮絶なる歴史遺産、その名を弁護士百景}{1061}{paragraph.5.1.2.3}%
\contentsline {paragraph}{\numberline {5.1.2.4}謎の関わりを持つ被告発人若杉幸平弁護士のことが浮かんだ、金沢市増泉の危険運転致死教唆の疑いで逮捕というニュース（04）：大西洋一弁護士@o2441を通して感じる弁護士百景}{1066}{paragraph.5.1.2.4}%
\contentsline {paragraph}{\numberline {5.1.2.5}謎の関わりを持つ被告発人若杉幸平弁護士のことが浮かんだ、金沢市増泉の危険運転致死教唆の疑いで逮捕というニュース（05）：大西洋一弁護士@o2441のタイムラインを回転寿司スシローが出るまで遡りストップ}{1070}{paragraph.5.1.2.5}%
\contentsline {paragraph}{\numberline {5.1.2.6}謎の関わりを持つ被告発人若杉幸平弁護士のことが浮かんだ、金沢市増泉の危険運転致死教唆の疑いで逮捕というニュース（06）：「信号無視」で調べた弁護士の反応}{1072}{paragraph.5.1.2.6}%
\contentsline {paragraph}{\numberline {5.1.2.7}謎の関わりを持つ被告発人若杉幸平弁護士のことが浮かんだ、金沢市増泉の危険運転致死教唆の疑いで逮捕というニュース（05）：マスコミの報道と弁護士脳の無反応}{1079}{paragraph.5.1.2.7}%
\contentsline {paragraph}{\numberline {5.1.2.8}謎の関わりを持つ被告発人若杉幸平弁護士のことが浮かんだ、金沢市増泉の危険運転致死教唆の疑いで逮捕というニュース（06）：その他を含むスクリーンショットとBloggerの記録}{1081}{paragraph.5.1.2.8}%
\contentsline {paragraph}{\numberline {5.1.2.9}謎の関わりを持つ被告発人若杉幸平弁護士のことが浮かんだ、金沢市増泉の危険運転致死教唆の疑いで逮捕というニュース（07）：2022年06月15日、能登中央図書館で読んだ新聞記事}{1085}{paragraph.5.1.2.9}%
\contentsline {paragraph}{\numberline {5.1.2.10}被告発人若杉幸平弁護士と被告発人大網健二の関係（01）：平成11年の2月から8月の間、建築・建設現場への人材派遣の仕事をした金沢市玉鉾二丁目の有限会社永久開発}{1086}{paragraph.5.1.2.10}%
\contentsline {paragraph}{\numberline {5.1.2.11}被告発人若杉幸平弁護士と被告発人大網健二の関係（02）：2022年06月16日から17日朝の記録}{1088}{paragraph.5.1.2.11}%
\contentsline {subsubsection}{\numberline {5.1.3}被告発人木梨松嗣弁護士}{1092}{subsubsection.5.1.3}%
\contentsline {paragraph}{\numberline {5.1.3.1}母親、廣野巳代子の人生を決定づけた被告発人木梨松嗣弁護士の思惑と罪状（01）：トビウオと弁護士ざんまい、とある弁護士の日常（資料編）}{1092}{paragraph.5.1.3.1}%
\contentsline {paragraph}{\numberline {5.1.3.2}母親、廣野巳代子の人生を決定づけた被告発人木梨松嗣弁護士の思惑と罪状（02）：トビウオと弁護士ざんまい、匿名弁護士刑裁サイ太@uwaaaaの日常2022年06月17日の記録（資料編）}{1096}{paragraph.5.1.3.2}%
\contentsline {paragraph}{\numberline {5.1.3.3}母親、廣野巳代子の人生を決定づけた被告発人木梨松嗣弁護士の思惑と罪状（03）：『トビウオと弁護士ざんまい』：『映画えんとつ町のプぺル』の予告と「電気ウナギ」のYouTube動画}{1107}{paragraph.5.1.3.3}%
\contentsline {paragraph}{\numberline {5.1.3.4}母親、廣野巳代子の人生を決定づけた被告発人木梨松嗣弁護士の思惑と罪状（04）：その他を含むスクリーンショットとBloggerの記録（2022年06月17日）}{1112}{paragraph.5.1.3.4}%
\contentsline {paragraph}{\numberline {5.1.3.5}母親、廣野巳代子の人生を決定づけた被告発人木梨松嗣弁護士の思惑と罪状（05）：2022年06月16日の朝にまとめた2020年4月の写真10枚}{1116}{paragraph.5.1.3.5}%
\contentsline {paragraph}{\numberline {5.1.3.6}母親、廣野巳代子の人生を決定づけた被告発人木梨松嗣弁護士の思惑と罪状（06）：2022年06月16日の朝にまとめた2020年03月23日に金沢に行った時に撮影した写真36枚、石川県庁や金沢中央卸売市場}{1117}{paragraph.5.1.3.6}%
\contentsline {paragraph}{\numberline {5.1.3.7}母親、廣野巳代子の人生を決定づけた被告発人木梨松嗣弁護士の思惑と罪状（07）：昨日6月16日のツイートとして目にした深澤諭史弁護士のコロコロコミックのツイートの不思議}{1120}{paragraph.5.1.3.7}%
\contentsline {paragraph}{\numberline {5.1.3.8}母親、廣野巳代子の人生を決定づけた被告発人木梨松嗣弁護士の思惑と罪状（08）：『トビウオと弁護士ざんまい』：2022年06月16日に能登町役場で調べた父母の戸籍謄本}{1129}{paragraph.5.1.3.8}%
\contentsline {paragraph}{\numberline {5.1.3.9}母親、廣野巳代子の人生を決定づけた被告発人木梨松嗣弁護士の思惑と罪状（09）：えきなんロー@ekinan\_lawyerのリツイート、平岡路子弁護士（富山県弁護士会）の向き合わない歴史的汚点の判決}{1131}{paragraph.5.1.3.9}%
\contentsline {paragraph}{\numberline {5.1.3.10}母親、廣野巳代子の人生を決定づけた被告発人木梨松嗣弁護士の思惑と罪状（10）：日弁連は再審法改正実現本部の設置、本部長は小林元治・日弁連会長}{1135}{paragraph.5.1.3.10}%
\contentsline {paragraph}{\numberline {5.1.3.11}母親、廣野巳代子の人生を決定づけた被告発人木梨松嗣弁護士の思惑と罪状（11）：現場に花束「命無駄にしない」　26人犠牲の大阪・放火殺人から半年（朝日新聞）}{1139}{paragraph.5.1.3.11}%
\contentsline {paragraph}{\numberline {5.1.3.12}母親、廣野巳代子の人生を決定づけた被告発人木梨松嗣弁護士の思惑と罪状（12）：現時点で控訴が確認できていない武田祐介弁護士の6月7日の強制性交等致傷で懲役13年判決に関する新情報}{1140}{paragraph.5.1.3.12}%
\contentsline {paragraph}{\numberline {5.1.3.13}母親、廣野巳代子の人生を決定づけた被告発人木梨松嗣弁護士の思惑と罪状（13）：その他を含むスクリーンショットとBloggerの記録（2022年06月19日）}{1144}{paragraph.5.1.3.13}%
\contentsline {paragraph}{\numberline {5.1.3.14}母親、廣野巳代子の人生を決定づけた被告発人木梨松嗣弁護士の思惑と罪状（14）：武田祐介弁護士の懲役13年となった強制性交等致傷で被害者側代理人の弁護士がいたという傍聴記の記事}{1148}{paragraph.5.1.3.14}%
\contentsline {paragraph}{\numberline {5.1.3.15}母親、廣野巳代子の人生を決定づけた被告発人木梨松嗣弁護士の思惑と罪状（15）：「こうやってウリ少女に説教しながらやってるおっさん知ってる。」といううの字のリツイート}{1155}{paragraph.5.1.3.15}%
\contentsline {paragraph}{\numberline {5.1.3.16}母親、廣野巳代子の人生を決定づけた被告発人木梨松嗣弁護士の思惑と罪状（16）：「「勇気を出して、被害者であると名乗り出て！」なんて言われてウッカリ」といううの字（@un\_co\_the2nd）のリツイート}{1157}{paragraph.5.1.3.16}%
\contentsline {paragraph}{\numberline {5.1.3.17}母親、廣野巳代子の人生を決定づけた被告発人木梨松嗣弁護士の思惑と罪状（17）：うの字（@un\_co\_the2nd）に代表される法クラ弁護士とフラワーデモのマッチポンプのように見える関係性}{1160}{paragraph.5.1.3.17}%
\contentsline {paragraph}{\numberline {5.1.3.18}母親、廣野巳代子の人生を決定づけた被告発人木梨松嗣弁護士の思惑と罪状（18）：上谷さくら弁護士と岸本学弁護士の共著「おとめ六法」からイメージが浮かんできた「弁護士消防団」というテーマ性（01）}{1164}{paragraph.5.1.3.18}%
\contentsline {paragraph}{\numberline {5.1.3.19}母親、廣野巳代子の人生を決定づけた被告発人木梨松嗣弁護士の思惑と罪状（19）：2022年02月28日、珠洲市の見附島、能登町の恋路海岸、ラブロ恋路で日帰り入浴をして帰った時の33枚の写真}{1171}{paragraph.5.1.3.19}%
\contentsline {paragraph}{\numberline {5.1.3.20}母親、廣野巳代子の人生を決定づけた被告発人木梨松嗣弁護士の思惑と罪状（20）：：2022年02月28日、珠洲市の見附島、能登町の恋路海岸、ラブロ恋路で日帰り入浴をして帰った33枚の写真}{1174}{paragraph.5.1.3.20}%
\contentsline {paragraph}{\numberline {5.1.3.21}母親、廣野巳代子の人生を決定づけた被告発人木梨松嗣弁護士の思惑と罪状（21）：「業界全体を潰せば、需要がある限り闇業者が跋扈する」というモトケンこと矢部善朗弁護士（京都弁護士会）のツイート}{1176}{paragraph.5.1.3.21}%
\contentsline {paragraph}{\numberline {5.1.3.22}母親、廣野巳代子の人生を決定づけた被告発人木梨松嗣弁護士の思惑と罪状（22）：「視野狭窄の支援団体は制度の議論において有害」というモトケンこと矢部善朗弁護士（京都弁護士会）のツイート}{1177}{paragraph.5.1.3.22}%
\contentsline {paragraph}{\numberline {5.1.3.23}母親、廣野巳代子の人生を決定づけた被告発人木梨松嗣弁護士の思惑と罪状（23）：「AV新法（AV出演被害防止・救済法）」の成立と伊藤和子弁護士の関わりについて調べてみる}{1179}{paragraph.5.1.3.23}%
\contentsline {paragraph}{\numberline {5.1.3.24}母親、廣野巳代子の人生を決定づけた被告発人木梨松嗣弁護士の思惑と罪状（24）：「第１３回環境法サマースクールを開催」という日弁連（日本弁護士連合会）のツイートに思う弁護士脳汚染という環境問題}{1188}{paragraph.5.1.3.24}%
\contentsline {paragraph}{\numberline {5.1.3.25}母親、廣野巳代子の人生を決定づけた被告発人木梨松嗣弁護士の思惑と罪状（25）：大阪弁護士会: ガラパゴス取調べからの脱却～全件可視化・弁護人立会いへ！}{1190}{paragraph.5.1.3.25}%
\contentsline {paragraph}{\numberline {5.1.3.26}母親、廣野巳代子の人生を決定づけた被告発人木梨松嗣弁護士の思惑と罪状（26）：モード切替のタイミングで見つけた秋田真志弁護士の法律事務所所属の西愛礼弁護士の意外な経歴}{1192}{paragraph.5.1.3.26}%
\contentsline {paragraph}{\numberline {5.1.3.27}母親、廣野巳代子の人生を決定づけた被告発人木梨松嗣弁護士の思惑と罪状（27）：6月30日を本件刑事告発・非常上告事件の告発状の日付に決定、これからの予定}{1194}{paragraph.5.1.3.27}%
\contentsline {paragraph}{\numberline {5.1.3.28}母親、廣野巳代子の人生を決定づけた被告発人木梨松嗣弁護士の思惑と罪状（28）：スクリーンショットとBloggerの記録（2022年06月19日13時から2022年06月21日14時の範囲）}{1200}{paragraph.5.1.3.28}%
\contentsline {paragraph}{\numberline {5.1.3.29}母親、廣野巳代子の人生を決定づけた被告発人木梨松嗣弁護士の思惑と罪状（29）：「（＾ω＾）弁護士からするとうらやましいことですお。。。」という深澤諭史弁護士のツイート}{1206}{paragraph.5.1.3.29}%
\contentsline {paragraph}{\numberline {5.1.3.30}母親、廣野巳代子の人生を決定づけた被告発人木梨松嗣弁護士の思惑と罪状（30）：「弁護士レストラン」と昭和の時代の歌謡ヒット曲「失恋レストラン」}{1211}{paragraph.5.1.3.30}%
\contentsline {paragraph}{\numberline {5.1.3.31}母親、廣野巳代子の人生を決定づけた被告発人木梨松嗣弁護士の思惑と罪状（31）：スクリーンショットとBloggerの記録（2022年06月21日19時から2022年06月23日07時の範囲）}{1213}{paragraph.5.1.3.31}%
\contentsline {paragraph}{\numberline {5.1.3.32}母親、廣野巳代子の人生を決定づけた被告発人木梨松嗣弁護士の思惑と罪状（32）：「バランス」に関連したモトケンこと矢部善朗弁護士（京都弁護士会）@motoken\_twのツイートの記録}{1216}{paragraph.5.1.3.32}%
\contentsline {paragraph}{\numberline {5.1.3.33}母親、廣野巳代子の人生を決定づけた被告発人木梨松嗣弁護士の思惑と罪状（33）：「弁護側の違法・ずさんな捜査を排除する技術がこの10年くらいで飛躍的に高まって」　←うの字（@un\_co\_the2nd）}{1218}{paragraph.5.1.3.33}%
\contentsline {paragraph}{\numberline {5.1.3.34}母親、廣野巳代子の人生を決定づけた被告発人木梨松嗣弁護士の思惑と罪状（34）：2020年9月3日、珠洲警察署能登庁舎と珠洲警察署を訪問した時に撮影した写真}{1225}{paragraph.5.1.3.34}%
\contentsline {paragraph}{\numberline {5.1.3.35}母親、廣野巳代子の人生を決定づけた被告発人木梨松嗣弁護士の思惑と罪状（35）：「憲法学者って、」と続く小倉秀夫弁護士のツイート、ブロックされている憲法学者の可能性のあるアカウント}{1229}{paragraph.5.1.3.35}%
\contentsline {paragraph}{\numberline {5.1.3.36}母親、廣野巳代子の人生を決定づけた被告発人木梨松嗣弁護士の思惑と罪状（36）：「この弁護士は、冤罪の発生原因について何もわかっていない。」というモトケンこと矢部善朗弁護士（京都弁護士会）のツイート}{1231}{paragraph.5.1.3.36}%
\contentsline {paragraph}{\numberline {5.1.3.37}母親、廣野巳代子の人生を決定づけた被告発人木梨松嗣弁護士の思惑と罪状（37）：スクリーンショットとBloggerの記録（2022年06月23日07時から2022年06月23日22時の範囲）}{1232}{paragraph.5.1.3.37}%
\contentsline {paragraph}{\numberline {5.1.3.38}母親、廣野巳代子の人生を決定づけた被告発人木梨松嗣弁護士の思惑と罪状（38）：大崎事件第4次再審請求棄却の報道関連（ネットの反応）：写真資料}{1239}{paragraph.5.1.3.38}%
\contentsline {paragraph}{\numberline {5.1.3.39}母親、廣野巳代子の人生を決定づけた被告発人木梨松嗣弁護士の思惑と罪状（39）：大崎事件第4次再審請求棄却の報道関連（Google検索）：写真資料}{1243}{paragraph.5.1.3.39}%
\contentsline {paragraph}{\numberline {5.1.3.40}母親、廣野巳代子の人生を決定づけた被告発人木梨松嗣弁護士の思惑と罪状（40）：印刷の準備}{1245}{paragraph.5.1.3.40}%
\contentsline {paragraph}{\numberline {5.1.3.41}母親、廣野巳代子の人生を決定づけた被告発人木梨松嗣弁護士の思惑と罪状（42）：スクリーンショットとBloggerの記録（2022年06月24日05時から2022年06月25日08時の範囲）}{1245}{paragraph.5.1.3.41}%
\contentsline {paragraph}{\numberline {5.1.3.42}母親、廣野巳代子の人生を決定づけた被告発人木梨松嗣弁護士の思惑と罪状（43）：告発状提出目前、研究者平裕介弁護士のTLに見た弁護士百景／知床の観光船沈没事故の報道のあり方批判記事}{1249}{paragraph.5.1.3.42}%
\contentsline {paragraph}{\numberline {5.1.3.43}母親、廣野巳代子の人生を決定づけた被告発人木梨松嗣弁護士の思惑と罪状（44）：深澤諭史弁護士@fukazawasと地震、マスコミ報道批判に関する過去の記録}{1252}{paragraph.5.1.3.43}%
\contentsline {paragraph}{\numberline {5.1.3.44}母親、廣野巳代子の人生を決定づけた被告発人木梨松嗣弁護士の思惑と罪状（45）：スクリーンショットとBloggerの記録（2022年06月25日08時から2022年06月26日08時の範囲）}{1260}{paragraph.5.1.3.44}%
\contentsline {paragraph}{\numberline {5.1.3.45}母親、廣野巳代子の人生を決定づけた被告発人木梨松嗣弁護士の思惑と罪状（46）：【大崎事件再審請求棄却！日本で再審が「開かずの扉」なのはなぜか？】郷原信郎の「日本の権力を斬る！」}{1263}{paragraph.5.1.3.45}%
\contentsline {paragraph}{\numberline {5.1.3.46}母親、廣野巳代子の人生を決定づけた被告発人木梨松嗣弁護士の思惑と罪状（47）：「それでも裁判官を信じるしか」。再審棄却に憤る弁護団。原口アヤ子さんは、ただうなずいていた【大崎事件】}{1264}{paragraph.5.1.3.46}%
\contentsline {paragraph}{\numberline {5.1.3.47}母親、廣野巳代子の人生を決定づけた被告発人木梨松嗣弁護士の思惑と罪状（48）：平成21年、宇出津の能都会館にあったパチスロ機「伝説の巫女」と、バスで通った珠洲市飯田町の職業訓練}{1267}{paragraph.5.1.3.47}%
\contentsline {paragraph}{\numberline {5.1.3.48}母親、廣野巳代子の人生を決定づけた被告発人木梨松嗣弁護士の思惑と罪状（49）：700枚（77.7MB）になったPDFファイルからJPG変換した家にあるアルバムの写真}{1275}{paragraph.5.1.3.48}%
\contentsline {paragraph}{\numberline {5.1.3.49}母親、廣野巳代子の人生を決定づけた被告発人木梨松嗣弁護士の思惑と罪状（50）：スクリーンショットとBloggerの記録（2022年06月26日12時から2022年06月27日21時の範囲）}{1277}{paragraph.5.1.3.49}%
\contentsline {paragraph}{\numberline {5.1.3.50}母親、廣野巳代子の人生を決定づけた被告発人木梨松嗣弁護士の思惑と罪状（51）：えきなんロー@ekinan\_lawyerのタイムラインで見かけた井垣孝之弁護士@igaki}{1285}{paragraph.5.1.3.50}%
\contentsline {paragraph}{\numberline {5.1.3.51}母親、廣野巳代子の人生を決定づけた被告発人木梨松嗣弁護士の思惑と罪状（52）：スクリーンショットとBloggerの記録（2022年06月27日21時から2022年06月28日08時の範囲）}{1287}{paragraph.5.1.3.51}%
\contentsline {paragraph}{\numberline {5.1.3.52}母親、廣野巳代子の人生を決定づけた被告発人木梨松嗣弁護士の思惑と罪状（53）：「かけがえのない人生を生きる人々の喜びや悲しみに対して深く共感しうる豊かな人間性」}{1289}{paragraph.5.1.3.52}%
\contentsline {paragraph}{\numberline {5.1.3.53}母親、廣野巳代子の人生を決定づけた被告発人木梨松嗣弁護士の思惑と罪状（54）：「高度に発達した科学が魔法と見分けがつかなくなるのと同じで、高度に発達した刑事弁護人は犯罪被害者支援弁護士と見分けがつかなくなる。」}{1298}{paragraph.5.1.3.53}%
\contentsline {paragraph}{\numberline {5.1.3.54}母親、廣野巳代子の人生を決定づけた被告発人木梨松嗣弁護士の思惑と罪状（55）：「A「ボクシングやプロレスは、死亡リスクが高く負傷は日常的。パターナリズムを理由に廃止すべきでは？」」←平裕介弁護士}{1301}{paragraph.5.1.3.54}%
\contentsline {paragraph}{\numberline {5.1.3.55}母親、廣野巳代子の人生を決定づけた被告発人木梨松嗣弁護士の思惑と罪状（56）：「（＾ω＾）法曹養成は法曹の卵を大事にする人にお願いしたいお・・。」←深澤諭史弁護士@fukazawas}{1305}{paragraph.5.1.3.55}%
\contentsline {paragraph}{\numberline {5.1.3.56}母親、廣野巳代子の人生を決定づけた被告発人木梨松嗣弁護士の思惑と罪状（57）：スクリーンショットとBloggerの記録（2022年06月28日11時から2022年06月28日05時の範囲）}{1306}{paragraph.5.1.3.56}%
\contentsline {paragraph}{\numberline {5.1.3.57}母親、廣野巳代子の人生を決定づけた被告発人木梨松嗣弁護士の思惑と罪状（58）：スクリーンショットとBloggerの記録（2022年06月29日07時から2022年06月29日12時の範囲）}{1311}{paragraph.5.1.3.57}%
\contentsline {paragraph}{\numberline {5.1.3.58}母親、廣野巳代子の人生を決定づけた被告発人木梨松嗣弁護士の思惑と罪状（59）：「それを弁護士や法曹一般のせいにして、社会全体を憎むことに自分の人生を浪費したりするので、本当に哀れに」　←深澤諭史弁護士}{1314}{paragraph.5.1.3.58}%
\contentsline {paragraph}{\numberline {5.1.3.59}母親、廣野巳代子の人生を決定づけた被告発人木梨松嗣弁護士の思惑と罪状（60）：（；・∀・）こういう人、結局、どこにも依頼できず、依頼してもうまくいかず、それを弁護士や法曹一般のせいにして、社会全体を憎む}{1315}{paragraph.5.1.3.59}%
\contentsline {paragraph}{\numberline {5.1.3.60}母親、廣野巳代子の人生を決定づけた被告発人木梨松嗣弁護士の思惑と罪状（61）：スクリーンショットとBloggerの記録（2022年06月29日12時から2022年06月29日19時の範囲）}{1315}{paragraph.5.1.3.60}%
\contentsline {paragraph}{\numberline {5.1.3.61}母親、廣野巳代子の人生を決定づけた被告発人木梨松嗣弁護士の思惑と罪状（62）：スクリーンショットとBloggerの記録（2022年06月29日20時から2022年06月29日21時の範囲）}{1319}{paragraph.5.1.3.61}%
\contentsline {paragraph}{\numberline {5.1.3.62}母親、廣野巳代子の人生を決定づけた被告発人木梨松嗣弁護士の思惑と罪状（63）：【NNNドキュメント】殺人犯として10年服役・・・無実を訴え続ける93歳女性の再審は　大崎事件　NNNセレクション}{1323}{paragraph.5.1.3.62}%
\contentsline {paragraph}{\numberline {5.1.3.63}母親、廣野巳代子の人生を決定づけた被告発人木梨松嗣弁護士の思惑と罪状（64）：「若い女の子が大量に失業するのが楽しみなんですね。」という小倉秀夫弁護士が岸本学弁護士に向けた引用ツイート}{1325}{paragraph.5.1.3.63}%
\contentsline {paragraph}{\numberline {5.1.3.64}母親、廣野巳代子の人生を決定づけた被告発人木梨松嗣弁護士の思惑と罪状（65）：「いつまで告発するする詐欺を続けるのかな？２０年くらい前から言ってると思うんだけどw」←モトケンこと矢部善朗弁護士（京都弁護士会）}{1328}{paragraph.5.1.3.64}%
\contentsline {paragraph}{\numberline {5.1.3.65}母親、廣野巳代子の人生を決定づけた被告発人木梨松嗣弁護士の思惑と罪状（66）：本件刑事告発・非常上告事件の概要及び今後の刑事手続きの予定}{1329}{paragraph.5.1.3.65}%
\contentsline {section}{\numberline {6}写真資料}{1331}{section.6}%
\contentsline {subsection}{\numberline {6.1}2014年}{1331}{subsection.6.1}%
\contentsline {subsubsection}{\numberline {6.1.1}2014年01月の写真（2022年06月20日のまとめ・33枚）荒れた海の大崎島での魚釣り、シーサイドの屋上から撮影したらしい珠洲市蛸島方面等}{1331}{subsubsection.6.1.1}%
\contentsline {subsubsection}{\numberline {6.1.2}2016年02月の写真（2022年06月20日のまとめ・53枚）金沢コロナシネマワールド、野々市市の大型中古品店、小木の九十九湾で37センチのアジを手に捕まえた場所の昼の風景等}{1334}{subsubsection.6.1.2}%
\contentsline {subsection}{\numberline {6.2}2019年}{1339}{subsection.6.2}%
\contentsline {subsubsection}{\numberline {6.2.1}2019年4月1日に金沢コロナシネマワールド、テルメ金沢、イオン金沢店（金沢市福久）に行った時の写真（8枚）}{1339}{subsubsection.6.2.1}%
\contentsline {subsection}{\numberline {6.3}2020年}{1339}{subsection.6.3}%
\contentsline {subsubsection}{\numberline {6.3.1}2020年08月の写真（2022年06月20日のまとめ・54枚）3日の金沢市内・富山の雨晴海岸、24日の金沢市内・野々市市内・のと里山海道の道の駅高松からの海岸線と夕日等}{1339}{subsubsection.6.3.1}%
\contentsline {section}{\numberline {7}スクリーンショットの記録資料}{1344}{section.7}%
\contentsline {subsection}{\numberline {7.1}2022年}{1344}{subsection.7.1}%
\contentsline {subsubsection}{\numberline {7.1.1}スクリーンショットとBloggerの記録（2022年06月29日22時から2022年06月30日06時の範囲）}{1344}{subsubsection.7.1.1}%
